 [{
     "name": "Gatto",
     "imgPath": "../resources/img/kitten1.jpg",
     "soundPath": "../resources/snd/meow.ogg"
 },{
     "name": "Cane",
     "imgPath": "../resources/img/doggie1.jpg",
     "soundPath": "../resources/snd/woof.wav"
 },{
     "name": "Papera",
     "imgPath": "../resources/img/duck1.jpg",
     "soundPath": "../resources/snd/papera.ogg"
 },{
     "name": "Gallina",
     "imgPath": "../resources/img/chicken1.jpg",
     "soundPath": "../resources/snd/chicken.wav"
 },{
     "name": "Mucca",
     "imgPath": "../resources/img/cow3.jpg",
     "soundPath": "../resources/snd/moo.ogg"
 },{
     "name": "Maiale",
     "imgPath": "../resources/img/pig9.jpg",
     "soundPath": "../resources/snd/maiale.ogg"
 },{
     "name": "Rana",
     "imgPath": "../resources/img/frog1.jpg",
     "soundPath": "../resources/snd/rana.ogg"
 },{
     "name": "cavallo",
     "imgPath": "../resources/img/horse1.jpg",
     "soundPath": "../resources/snd/cavallo.ogg"
 }]
